<?xml version="1.0" encoding="utf-8"?>
<!-- Generator: Adobe Illustrator 20.0.0, SVG Export Plug-In . SVG Version: 6.00 Build 0)  -->
<svg version="1.1" id="Layer_1" xmlns="http://www.w3.org/2000/svg" xmlns:xlink="http://www.w3.org/1999/xlink" x="0px" y="0px"
	 viewBox="0 0 16.8 20.3" style="enable-background:new 0 0 16.8 20.3;" xml:space="preserve">
<g>
	<path d="M7.9,10.2C8.4,9.6,8.8,9,9.2,8.5c0.2,0.1,0.3,0.2,0.4,0.2c0.2,0.1,0.2,0.2,0.2,0.4C9.7,9.5,9.6,10,9.5,10.4
		c0,0.1-0.1,0.2-0.1,0.4c0.5-0.5,0.9-1.2,1.7-1.6c0,0.5,0.3,0.9,0.2,1.3c0,0.4,0,0.8,0,1.3c-0.1,0-0.4,0-0.4-0.2
		c-0.1-0.3-0.2-0.7-0.3-1c-0.1,0.1-0.2,0.1-0.3,0.2c-0.2,0.2-0.4,0.5-0.6,0.8c-0.1,0.1-0.2,0.3-0.4,0.3c-0.2,0-0.5-0.3-0.4-0.5
		c0-0.4,0.1-0.8,0.1-1.3c0,0,0-0.1,0-0.1c-0.1,0.1-0.2,0.2-0.2,0.3c-0.3,0.4-0.6,0.8-0.8,1.3c-0.1,0.1-0.1,0.2-0.2,0.3
		c-0.1,0.1-0.2,0.1-0.2,0c0,0-0.1-0.1-0.1-0.1C7,11.6,7,11.3,7,11.1c0.1-0.5,0.2-1.1,0.3-1.6c0-0.1,0-0.1,0-0.2
		C7.3,9.4,7.2,9.4,7.2,9.5c-0.4,0.6-0.8,1.2-1.2,1.8c-0.1,0.1-0.1,0.2-0.2,0.3c-0.1,0.2-0.1,0.2-0.3,0.1c0,0-0.1-0.1-0.1-0.1
		c-0.2-0.1-0.3-0.3-0.2-0.5c0.1-0.8,0.3-1.6,0.5-2.4c0-0.1,0-0.1,0-0.2c0,0-0.1,0.1-0.1,0.1c-0.7,0.9-1.2,1.9-1.7,2.9
		c-0.1,0.2-0.2,0.2-0.4,0.1c-0.1-0.1-0.2-0.2-0.3-0.3c0,0,0-0.1,0-0.1c0.6-1.3,1.2-2.5,2.2-3.6c0.2-0.2,0.4-0.4,0.6-0.5
		C6,7.1,6.1,7.2,6.2,7.3C6.4,7.5,6.5,7.7,6.4,8C6.3,8.5,6.3,9,6.2,9.5c0,0,0.1-0.1,0.1-0.1C6.8,8.9,7.2,8.4,7.6,8
		C7.8,7.8,7.8,7.8,8,8c0.2,0.2,0.3,0.4,0.2,0.7C8.1,9.1,8,9.6,7.9,10C7.9,10,7.9,10.1,7.9,10.2z"/>
	<path d="M14.9,0.2h-13C1,0.2,0.3,1,0.3,1.9v16.6c0,0.8,0.6,1.5,1.4,1.6h0.8h1.4h0.7h8.9h1.3c0.9,0,1.6-0.7,1.6-1.6V1.9
		C16.6,0.9,15.8,0.2,14.9,0.2z M13.3,19.3H1.9c-0.5,0-0.9-0.4-0.9-0.8V1.9C1.1,1.4,1.4,1,1.9,1h11.3V19.3z M15.8,18.4
		c0,0.5-0.4,0.9-0.9,0.9H14V1h0.9c0.5,0,0.9,0.4,0.9,0.9V18.4z"/>
</g>
</svg>
